名称	变量名	变量值
	Key	Value
Время сбора урожая и золота HarvestInterval 60
Души для искупления	RoleRecallSoulorange	6000
Вытянуть белые души	RoleToSoulwhite	4
Вытянуть голубые души	RoleToSoulblue	16
Вытянуть сиреневые души	RoleToSoulpurple	64
Вытянуть оранжевые души	RoleToSoulorange	256
Максимальный уровень навыка	RoleSkillLevelMax	10
Нет ресурсов для улучшения	RoleRefineMaterial	20
Передача золота	RoleTransferGold	100
Передача слитков	RoleTransferCash	100
Обмен золота на опыт	RoleTransferGoldXp	80
Обмен слитков на опыт	RoleTransferCashXp	100
Бесплатный призыв	ParidisDailyLimit	1
Испытание пройдено	KillRoleDailyLimit	1
Работа в шахте (часы)	MineOccupyTime	1
Дневной лимит шахты	MineDailyLimit	3
Макс добыча шахты	MineMaxOutput	2
Время тренировки	TrainingColdTime	28800
Тренировка за слитки (часы)	TrainingClearColdTime	2
Ограничение отдыха	RoleSeatLimit	15
Бесплатный ежедневный вызов	RankDailyLimit	15
Платный ежедневный выхов	RankCashDailyLimit	1
Цена испытания	RankCash	50
Время получения наград	RankRewardDayLimit	1
Награда золотом	RankEachGold	5000
Награда честью	RankEachHonor	200
Мин очистка	RoleRefineMin	0
Макс очистка	RoleRefineMax	3
Мин очистка (платина)	SilverRoleRefineMin	1
Макс очистка (платина)	SilverRoleRefineMax	5
Цена в слитках за очистку	SilverRoleRefineCash	6
Мин супер очистка	SuperRoleRefineMin	5
Макс супер очистка	SuperRoleRefineMax	15
Супер очистка за слитки	SuperRoleRefineCash	42
Шанс успеха гемов	LuckyGemSuccess	10
ID гема удачи	LuckyGemId	37
Простая пища	DailyFood	4000
Покупка еды	CashFood	1000
Деликатесы	DuplicateBossFood	1000
Купить вкусняху	DuplicateFood	100
Уровень побочных квестов	OpenBranchTaskAtLevel	10
Макс букв в рупор	GlobalMessageMaxLength	18
Макс новостей	RankMessageMaxLength	6
招贤馆元宝锁定花费	TavernCash	5
每天臣民产出次数	PersonOutPutTimes	40
每日签到的最大天数	SignDayLimit	30
补签一次每日签到的元宝花费	SignOnceCash	10
连续登陆领取奖励的最大天数	LoginDayLimit	5
地牢收获时间间隔（小时）	PrisonInterval	1
地牢抓捕免费次数	PrisonDailyLimit	10
地牢压榨元宝花费（元宝/小时）	PrisonPressCash	2
建立军团的元宝花费	CreateLeagueCash	100
军团列表每页显示数目	LeagueDisplayLimitPerPage	9
每一点活跃度增加的军团经验	LeagueXpPerActivity	1
每一点活跃度增加的军团贡献	LeagueContributePerActivity	7
弹劾帮主花费元宝	ImpeachLeagueLeaderCash	100
捐献每一元宝增加的军团贡献	LeagueContributePerCash	14
每次翻牌消耗个人的军团贡献	LeagueContributePerCard	200
军团翻牌活动每日免费次数	LeagueGameCountPerDay	10
武器镶嵌宝石类型	WeaponGemSlot	101:101:601
法器镶嵌宝石类型	MagicGemSlot	201:201:601
防具镶嵌宝石类型	ArmorGemSlot	301:401:701
饰品镶嵌宝石类型	AccessoryGemSlot	501:501:801
装备第一个宝石槽开启所需强化等级	EquipOpenGemStrength1	35
装备第二个宝石槽开启所需强化等级	EquipOpenGemStrength2	40
装备第三个宝石槽开启所需强化等级	EquipOpenGemStrength3	45
初始开放的宝石等级	DefaultOpenGemLevel	6
7级宝石开放距离开服时间（天）	GemLevelOpenDays7	1
8级宝石开放距离开服时间（天）	GemLevelOpenDays8	1
9级宝石开放距离开服时间（天）	GemLevelOpenDays9	1
10级宝石开放距离开服时间（天）	GemLevelOpenDays10	1
每日买粮食次数限制	BuyFoodLimit	10
获取合璧的半块玉每日次数	CombineGotStoneDailyLimit	1
每日合璧次数	CombineDailyLimit	2
合璧完成需要的时间秒数	CombineTimerLimit	900
商社每天返回起点次数	BusinessGobackLimit	3
分享战役元宝花费	ShareBattleCash	50
自动招将最大轮数	AutoInviteRoundLimit	99
军团战参战军团的最小等级	LeagueWarLeagueLevelMin	2
军团战参战玩家的最小等级	LeagueWarUserLevelMin	31
军团战个人基础积分	LeagueWarBaseScore	100
军团战持续时间(11小时)	LeagueWarContinueTime	39600
军团战休息时间（37小时）	LeagueWarRestTime	133200
军团战军衔经验基础值（军衔）	LeagueWarGradeBaseXp	50
军团战个人体力产出效率（每小时）	LeagueWarEnergyPerHour	113
军团战战败扣除个人体力	LeagueWarFailEnergy	50
军团战击杀获取个人积分	LeagueWarWinScore	30
军团战战斗失败获取个人积分	LeagueWarFailScore	15
参加军团战斗军团成员最小数目	LeagueWarPlayerNumMin	25
军团战生产一次迁徙次数所需要的时间	LeagueWarMoveOutputHours	2
军团战购买一次迁徙的元宝花费	LeagueWarBuyMoveCash	20
军团战每次购买获取的体力	LeagueWarEnergyPerCost	1000
军团战获取每日获取额外体力的时间	LeagueWarGotExEnergyHour	18
军团战每次获取的额外体力	LeagueWarGotExEnergy	1200
军团战进攻CD时间(秒)	LeagueWarFightColdTime	5
军团战在基地的玩家增加的攻击百分比	LeagueWarBaseCityAttackAdd	20
命运轮盘基础元宝花费	WheelCashBase	5
命运轮盘每日免费次数	WheelDailyLimit	2
命运轮盘递增元宝花费	WheelCashAdd	5
命运轮盘递增元宝最大值	WheelCashMax	100
金币购买橙色英雄花费	BuyOrangeRoleCostGold	3000000
武将觉醒炼魂等级	AwakeSoulLimit	50
武将觉醒属性增加的百分比	AwakeAttrAdd	5
军团boss开战时间(小时)	LeagueBossStartHour	20
军团boss结束时间(小时)	LeagueBossEndHour	21
军团boss重置时间(小时)	LeagueBossResetHour	6
军团boss结束冷却元宝花费	LeagueBossEndCoolCash	20
军团boss冷却时间	LeagueBossCoolTime	240
军团boss元宝鼓舞花费	LeagueBossInspireCash	10
军团boss军功鼓舞花费	LeagueBossInspireHonor	9000
军团boss鼓舞攻击加成	LeagueBossInspireAttack	10
军团boss鼓舞加成上限	LeagueBossInspireLimit	100
步步惊喜每日免费次数	SurpriseDailyFreeLimit	3
步步惊喜每日总次数	SurpriseDailyLimit	20
步步惊喜元宝花费	SurpriseCash	5
修炼打坐时间上限	OfflineXpHourLimit	24
修炼打坐提升经验元宝花费	OfflineXpCashHour	2
修炼打坐元宝提升经验倍数	OfflineXpCashFactor	3
修炼打坐等级限制	OfflineXpLevelLimit	500
疯狂擂台每天开始时间	CrazyRankStartHour	9
疯狂擂台每天结束时间	CrazyRankEndHour	21
疯狂擂台每日送道具次数	CrazyRankSendTimes	10
疯狂擂台将魂奖励数量区间开始	CrazyRankSoulNumMin	500
疯狂擂台将魂奖励数量区间结束	CrazyRankSoulNumMax	1000
装备洗炼一次消耗天玉数量	EquipRefineMaterialNum	10
装备洗炼一次增加属性	EquipRefineAddAttribute	10
装备洗炼开启等级	EquipRefineLevelLimit	500
古墓宝藏获取额外奖励需挖掘次数	TombDigNum	3
古墓宝藏等级限制	TombLevelLimit	500
貂蝉TV开放等级	TvLevelLimit	500
黄钻宝石最高数量	YellowDiamondLimit	82
黑市开放等级	BlackShopLevelLimit	35
武将觉醒开放等级	AwakeOpenLevelLimit	50
祈福许愿元宝花费	WishCash	100
神兵锻造成功所需的锻造次数	ForgeTotalTime	150
神兵锻造等级限制	ForgeOpenLevel	20
神兵锻造每日锻造次数上限	ForgeDailyLimit	10
神兵锻造每次奖励金币数量	ForgeGold	20000
武将炼魂开放等级	RoleSoulOpenLevel	42
地牢开放等级限制	PrisonOpenLevelLimit	33
跨服战报名要求擂台排名	ServerWarRankMin	200
跨服战报名要求等级排名	ServerWarLevelMin	50
跨服战支持君主等级限制	ServerWarSupportLevel	40
西域夺宝返回次数限制	WesternGobackLimit	3
百服团购每日限购次数	GrouponDailyLimit	3
百服团购积分劵Id	GrouponScoreId	84
世界boss开战时间1(小时)	WorldBossStartHour1	13
世界boss结束时间1(小时)	WorldBossEndHour1	14
世界boss开战时间2(小时)	WorldBossStartHour2	21
世界boss结束时间2(小时)	WorldBossEndHour2	22
世界boss重置时间(小时)	WorldBossResetHour	0
世界boss结束冷却元宝花费	WorldBossEndCoolCash	20
世界boss冷却时间	WorldBossCoolTime	240
世界boss元宝鼓舞花费	WorldBossInspireCash	10
世界boss军功鼓舞花费	WorldBossInspireHonor	9000
世界boss鼓舞攻击加成	WorldBossInspireAttack	10
世界boss鼓舞加成上限	WorldBossInspireLimit	100
世界boss血量上限	WorldBossMaxHealth	1000000000
世界boss血量随开服天数增量	WorldBossHealthPerDay	5000000
世界boss开放等级	WorldBossOpenLevel	40
世界boss开放距离开服天数	WorldBossOpenDays	3
世界boss排行榜显示上限	WorldBossRankLimit	200
擂台每天领取奖励时间	RankGetRewardTime	20
变强系统开放等级限制	StrongOpenLevelLimit	12
黑市商店中物品的刷新时间间隔(6小时)	BlackShopUpdateTime	21600
黑市商店中每次普通刷新物品时消耗的黄金军令数目	BlackShopNormalGoldOrder	1
黑市商店中每次白金刷新物品时消耗的黄金军令数目	BlackShopSilverGoldOrder	5
黑市商店中每次至尊刷新物品时消耗的黄金军令数目	BlackShopSuperGoldOrder	50
三顾茅庐开放等级	VisitOpenLevel	25
三顾茅庐追回所需元宝	VisitEnrollCash	50
天天爱转轮自动刷新奖励间隔天数	DayWheelAutoRefreshDay	3
天天爱转轮手动刷新奖励元宝消耗	DayWheelRefreshCash	100
天天爱转轮开放等级限制	DayWheelOpenLevelLimit	500
天天爱转轮开放距离开服天数	DayWheelOpenDays	99999999
充值排行榜进榜充值条件	PayRankCashMin	5000
疯狂擂台每次挑战元宝花费	CrazyFightCashCost	10
五虎上将武将Id	FiveRoleIds	2:3:4:5:6
神兽开启等级	PetOpenLevel	60
砸宝箱需要总次数	HitBoxTimes	5
砸宝箱等级限制	HitBoxLevelLimit	20
砸宝箱一次的元宝花费	HitBoxCash	50
神兽按阶开放相对时间	PetOpenRelativeTime	2014:1:22:0:0:0
每天开始限时云购时间	CloudStartHour	9
云购单价	CloudUnitPrice	10
云购开放等级	CloudOpenLevel	50
充值回馈抽奖所需兑换次数	ChargeFeedExchangeCost	10
充值回馈赠送积分	PayScorePerCash	1
每日首充开放距离开服天数	DailyPayOpenDays	7
每日首充开放等级	DailyPayOpenLevel	35
每日首充最低充值	DailyPayCashMin	50
每日首充每月累计次数	DailyPayMonthNum	2
每日首充下架时间	DailyPayEndTime	2014:12:13:23:59:59
本命武将开放等级	SpecialRoleOpenLevel	70
本命武将改名元宝花费	SpecialRoleRenameCash	50
本命武将更换元宝花费	SpecialRoleKillCash	100
华佗炼丹开放等级	HuatuoOpenLevel	500
华佗开放距离开服天数	HuatuoOpenDays	8
华佗炼丹每日免费次数	HuatuoDailyLimit	10
一键跑商开启等级	BusinessAutoRunLevel	60
每日充值排行榜进榜充值条件	DailyPayRankCashMin	5000
战术大赛开放等级	TroopMatchOpenLevel	60
战术大赛开放距离开服天数	TroopMatchOpenDays	5
战术大赛每日挑战的总次数	TroopMatchEnterTimes	3
战术大赛重新进入cd时间(秒)	TroopMatchColdTime	1800
战术大赛立即结束等待元宝消耗	TroopMatchClearCashCost	20
战术大赛每场胜场上限	TroopMatchWinLimit	10
战术大赛元宝挑战消耗	TroopMatchRetryCashCost	10
云购抽奖消耗积分	CloudLotteryScore	100
云购抽奖获取额外奖励需抽奖次数	CloudLotteryLimit	10
砸金蛋等待时间(秒)	BreakEggColdTime	3600
砸金蛋清除cd时间所需元宝	BreakEggClearCashCost	50
砸金蛋每日次数限制	BreakEggDailyLimit	5
云购开放距离开服天数	CloudOpenDays	8
装备冲星开启等级	EquipStarLevelLimit	70
装备冲星距离开服天数	EquipStarOpenDays	30
装备冲星启用相对时间	EquipStarRelativeTime	2014:1:22:0:0:0
决战天下开放距离开服时间（天）	BattleWorldOpenDays	7
决战天下报名要求擂台排名	BattleWorldRankMin	100
决战天下报名要求等级排名	BattleWorldLevelMin	50
决战天下支持君主等级限制	BattleWorldSupportLevel	40
决战天下每人携带体力值上限	BattleWorldPersonEnernyMax	1000
决战天下战败扣除个人体力	BattleWorldFailEnergy	50
决战天下击杀获取个人积分	BattleWorldWinScore	30
决战天下战斗失败获取个人积分	BattleWorldFailScore	15
决战天下生产一次迁徙次数所需要的时间	BattleWorldMoveOutputHours	0.2
决战天下购买一次迁徙的元宝花费	BattleWorldBuyMoveCash	20
决战天下每次购买获取的体力	BattleWorldEnergyPerCost	1000
决战天下个人体力产出效率（每小时）	BattleWorldEnergyPerHour	2000
决战天下个人体力产出时间间隔(小时)	BattleWorldEnergyOutputHours	0.5
决战天下个人基础积分	BattleWorldBaseScore	100
决战天下进攻冷却时间（每秒）	BattleWorldAttackCoolTime	5
决战天下神将额外奖励ID	BattleWorldExtraMaterialId	47
决战天下基地攻击加成	BattleWorldBaseCityAttackAdd	20
钻石卡牌每日免费刷新次数	DiamondCardDailyLimit	3
跨服充值排行榜进榜充值条件	ServerPayRankCashMin	10000
跨服金矿开启等级	ServerMineOpenLevel	80
跨服金矿每天抢占次数	ServerMineDailyLimit	3
跨服金矿最大产出系数	ServerMineMaxOutput	2
跨服金矿每次最长占领时间(小时)	ServerMineOccupyTime	1
驱逐年兽爆竹物品ID	YearBossBombMaterialId	207
驱逐年兽领取爆竹冷却时间（小时）	YearBossGetBombCoolTime	0.5
驱逐年兽开战时间(小时)	YearBossStartHour	20.5
驱逐年兽结束时间(小时)	YearBossEndHour	21.5
驱逐年兽重置时间(小时)	YearBossResetHour	0
驱逐年兽结束冷却元宝花费	YearBossEndCoolCash	20
驱逐年兽冷却时间	YearBossCoolTime	240
驱逐年兽元宝鼓舞花费	YearBossInspireCash	10
驱逐年兽鞭炮鼓舞花费	YearBossInspireBomb	1
驱逐年兽鼓舞攻击加成	YearBossInspireAttack	10
驱逐年兽鼓舞加成上限	YearBossInspireLimit	100
驱逐年兽血量随开服天数增量	YearBossHealthPerDay	5000000
驱逐年兽血量上限	YearBossMaxHealth	600000000
驱逐年兽排行榜显示上限	YearBossRankLimit	200
每颗神兽幻化丹增加神兽属性百分比	PetBuffAddAttribute	2
红包每日使用次数上限	RedPacketDailyUseLimit	1
红包材料ID	RedPacketMaterialId	208
幸运号码选号截止时间	LuckyNumberSelectEndHour	18
幸运号码开奖时间	LuckyNumberOpenHour	18.5
幸运号码奖励重置时间	LuckyNumberResetHour	24
幸运号码修改所需元宝	LuckyNumberModifyCash	5
新区红包每日使用次数上限	NewRedPacketDailyUseLimit	1
新区红包材料ID	NewRedPacketMaterialId	214
超级卡牌每日免费刷新次数	SuperCardDailyLimit	3
超级卡牌每轮翻牌次数限制	SuperCardOpenPerRoundLimit	6
好友最大人数	FriendCountLimit	50
好友屏蔽最大人数	FriendShieldLimit	50
好友拉黑最大人数	FriendBlackLimit	50
邀请好友开放等级	InviteFriendOpenLevel	9
成就系统开放等级	AchievementOpenLevel	11
成就系统开放徽章个数	AchievementOpenStageNum	17
新手引导招募武将Id	FirstEnrollRoleId	30
战斗跳过需要达到等级	SkipBattleLevelLimit	40
战斗跳过需要达到VIP等级	SkipBattleVipLimit	2
勇闯重楼开放等级	TowerOpenLevel	32
商社开放等级	BusinessOpenLevel	36
武将洗髓开放等级	RoleWashOpenLevel	32
宝石功能开放等级	GemOpenLevel	36
军机处开放等级	TechOpenLevel	41
自动招将需要达到等级	TavernAutoLevelLimit	30
自动招将需要达到VIP等级	TavernAutoVipLimit	1
一键跑商需要达到VIP等级	BusinessAutoRunVipLimit	5
至尊培养需要达到VIP等级	SuperRoleGrouthVipLimit	3
勇闯重楼元宝重置需要达到VIP等级	TowerResetVipLimit	5
过关斩将元宝充值需要达到VIP等级	KillResetVipLimit	5
每日购买金币次数限制	BuyGoldLimit	5
黑市普通刷新Tips	BlackShopNormalTips	可刷出图纸，经验丹，幸运宝石等
黑市白金刷新Tips	BlackShopSilverTips	可额外刷出觉醒神将武魂（合成神将）
黑市至尊刷新Tips	BlackShopSuperTips	可额外刷出神将武魂，神将碎片
地下宝藏每天零点恢复铁镐数量	DigTreasureDailyAxe	5
地下宝藏每次购买铁镐所需元宝数量	DigTreasureBuyCash	500
地下宝藏每次购买铁镐的数目	DigTreasureBuyAxeNum	50
地下宝藏每天免费重置次数	DigTreasureFreeResetLimit	1
高级解雇武将花费元宝数目	KillRoleCostCash	1000
武将坐骑开放距离开服时间（天数）	RoleHorseOpenDays	14
金币套马消耗	CatchHorseGoldCost	10000
金币套马消耗上限	CatchHorseGoldCostMax	5000000
道具套马材料ID	CatchHorseMaterialId	225
道具套马材料数量	CatchHorseMaterialNum	1
坐骑初始化的马匹ID	InitalHorseId	100
玩家背包中最多允许存在的马匹	OwnHorseLimit	80
装备打造必成道具	ForgeSuccessMaterialId	235
冲星碎片使用限制条件	EquipStarMaterialLevel	4
大乐透选号截止时间	LotterySelectEndHour	20
大乐透开奖时间	LotteryOpenHour	20.5
大乐透奖励重置时间	LotteryResetHour	24
大乐透每注所需元宝	LotteryOneCash	2
大乐透超级奖奖池比例	LotterySuperPrizeRate	80
大乐透每日限注数	LotteryDayLimit	1000
大乐透初始奖池	LotteryInitPool	10000
大乐透超级奖开关最小值	LotteryOpenMin	1
大乐透超级奖开关关键值	LotteryOpenKey	3
大乐透超级奖开关最大值	LotteryOpenMax	9
大乐透幸运奖每注奖金	LotteryLuckyPrize	5
大乐透每注积分	LotteryOneScore	2
大乐透开放等级	LotteryOpenLevel	50
大乐透展示超级奖中奖人数最大值	LotteryDisplayMax	100
大乐透距离开服时间（天数）	LotteryOpenDays	500
个人战役每日免费重置次数	MyBattleFreeResetLimit	1
羽翼初始化的羽翼品阶	InitialWingLevel	1
羽翼君主开放等级	WingOpenLevel	50
羽翼开放距离开服时间（天数）	WingOpenDays	14
仙羽合成所要消耗数量	WingMakeNum	3
福星高照每日可投掷骰子次数	BlessCountPerDay	10
福星高照每日免费改运次数	BlessFreeChangeTimes	10
福星高照免费改运福字权重系数	BlessChangeFreeWeight	120
福星高照元宝改运福字权重系数	BlessChangeCashWeight	120
福星高照元宝改运次数	BlessCashChangeTimes	21
福星高照骰子个数	BlessDiceCount	6
幸运轮盘免费刷新时间间隔(小时)	LuckyCircleFreeUpdateTime	6
炼魄君主开放等级	SoulBreakTwoLevel	75
培养二次突破开放等级	GrouthBreakTwoLevel	50
军团副本鼓舞次数上限	LeagueDuplicateInspireLimit	10
军团副本鼓舞攻击加成	LeagueDuplicateInspireAttack	10
军团副本鼓舞元宝消耗	LeagueDuplicateInspireCash	10
军团副本鼓舞军功消耗	LeagueDuplicateInspireHonor	9000
军团副本初始免费挑战次数	LeagueDuplicateFree	5
军团副本Boss关卡消耗粮食	LeagueDuplicateBossFood	200
军团副本普通怪消耗粮食	LeagueDuplicateFood	200
军团副本副本重置间隔时间（小时）	LeagueDuplicateResetInterval	72
军团副本副本重置花费元宝	LeagueDuplicateResetCash	100
充值嘉年华开启需求充值元宝数	PayCarnivalTotalCash	500
充值嘉年华开启后持续天数	PayCarnivalAwardDays	7
充值嘉年华每日消费奖励需要消费元宝数	PayCarnivalDailyCost	50
充值嘉年华开启需要开服天数	PayCarnivalOpenDays	7
充值嘉年华开启需要玩家等级	PayCarnivalOpenLevel	35
重返三国登录奖励需要登录天数	ReturnLevelupLoginAwardNeedDays	3
合璧换壁消耗	CombineCost	50000
大小喇叭等级限制	TinyTrumpetLimit	10
跨服金矿掠夺固定系数（因为无法获取玩家等级）	ServerMineRobFactor	40
充值幸运转积分兑换比	LuckyChargeScoreRatio	1
参拜武圣获得一次所需要充值元宝数	WorshipSaintNeedPayCash	200
武将升星开启等级	RoleStarOpenLevel	65
武将升星兵种特技1开启星级	RoleStarSpecialSkillOne	4
武将升星兵种特技2开启星级	RoleStarSpecialSkillTwo	7
武将升星兵种特技3开启星级	RoleStarSpecialSkillThree	10
武将升星额外属性星级1	RoleStarExtraLevelOne	3
武将升星额外属性星级2	RoleStarExtraLevelTwo	6
武将升星额外属性星级3	RoleStarExtraLevelThree	9
横扫九州开启等级	SmashLandOpenLevel	65
横扫九州英雄榜开启时间(星期)	SmashLandRankOpenWeekDay	5
横扫九州英雄榜周期天数	SmashLandRankPeriodDays	14
横扫九州英雄榜比赛持续天数	SmashLandRankMatchDays	3
御前科举答对次数上限	ImperialexaminationCorrect	20
御前科举错答次数上限	ImperialexaminationMistake	5
御前科举答题持续时间	ImperialexaminationTimeLast	0.5
御前科举每日开启时间开启时间	ImperialexaminationTimeStart	22
每道题积分	ImperialexaminationQuestionScore	20
草船借箭获取积分最小值	ShotMeArrowMinGetPoint	20
草船借箭获取积分最大值	ShotMeArrowMaxGetPoint	30
草船借箭暴击几率	ShotMeArrowCritChance	9
草船借箭暴击积分	ShotMeArrowCritPoint	100
草船借箭免费借箭CD清除花费	ShotMeArrowCleanCDCost	20
草船借箭暴击是否全服公告	ShotMeArrowCritShowTip	1
草船借箭免费借箭CD时间（分钟）	ShotMeArrowFreeCD	60
草船借箭每天免费借箭次数	ShotMeArrowFreeNum	5
草船借箭排行榜长度	ShotMeArrowRankSize	10
草船借箭上榜需要的借箭次数	ShotMeArrowAtRankNum	300
决战天下首次开启时间(设置在星期天)	BattleWorldFirstOpenTime	2015:6:21:0:0:0
决战天下周期天数	BattleWorldPeriodDays	14
决战天下持续天数	BattleWorldKeepDays	7
王者战场主城武将士兵恢复速度（每分钟）百分比	ChampsBattleMainRecoverVelocity	3
王者战场首次开启时间(设置在星期天)	ChampsBattleFirstOpenTime	2015:6:14:0:0:0
王者战场周期天数	ChampsBattlePeriodDays	14
王者战场持续天数	ChampsBattleKeepDays	7
王者战场需要擂台最低排名	ChampsBattleRankMin	50
王者战场部队数量	ChampsBattleTeamCount	3
王者战场每支部队武将数量	ChampsBattleTeamRoleCount	4
王者战场移动需要时间长(秒)	ChampsBattleMoveNeedTime	10
王者战场战斗需要时间长(秒)	ChampsBattleBattleNeedTime	30
王者战场刷新主战场时间限制(秒)	ChampsBattleGetFieldLimitTime	20
王者战场刷新战场城池时间限制(秒)	ChampsBattleGetCityLimitTime	20
王者战场达到疲惫的连斩次数	ChampsBattleTeamTiredKills	4
召唤需要资源	ChampsBattleSummonResource	400
王者战场开启等级和支持等级限制	ChampsBattleOpenLevel	40
好友义气每天获取上限	NewFriendMaxDailyGetFriendPoint	45
好友义气抽奖开启等级	NewFriendAwardLevelLimit	45
好友义气抽奖消耗点数	NewFriendAwardPointCost	50
好友平乱事件触发概率	InsurgencyTriggerChance	50
好友平乱怪物强度系数(怪物属性=InsurgencyMonsterFactor/100*玩家属性)	InsurgencyMonsterFactor	80
好友平乱事件每天触发次数上限	InsurgencyDailyTimes	20
好友协助开矿怪物强度系数(怪物属性=AssistMineMonsterFactor/100*好友属性)	AssistMineMonsterFactor	100
好友协助开矿奖励义气点数	AssistMineBattleAwardPoint	12
好友协助开矿每天次数	AssistMineDailyTimes	1
好友协助开矿被协助者金币增益百分比	AssistMineOutputFactor	25
好友系统平乱开放等级	InsurgencyLevelLimit	45
好友系统协助开矿开放等级	AssistMineLevelLimit	48
好友系统远古封印开放等级	PeriodLevelLimit	52
邮箱绑定奖励	MailVerityAwards	material.47:10|material.78:10|material.236:1|material.1014:5|user.cash:500
夺宝之旅活动投掷积分普通	TreasureTravelNormalThrowScore	1
夺宝之旅活动投掷积分宝箱	TreasureTravelChestThrowScore	2
夺宝之旅活动投掷积分收费普通	TreasureTravelCostNormalThrowScore	2
夺宝之旅活动投掷积分收费宝箱	TreasureTravelCostChestThrowScore	4
夺宝之旅活动免费投掷次数	TreasureTravelFreeThrowTimes	3
星座开启等级	HoroscopeOpenLevel	75
将魂与星魂的兑换汇率	HsoulExchangeRate	20000
英雄志免费放置次数	HeroLogPlacementNum	3
英雄志开启等级	HeroLogOpenLevel	75
英雄志最大章节	HeroChapterMaxId	15
星座奇缘普通占星次数	XingzuoRomanceNormal	5
星座奇缘糖果活动开始时间	XingzuoRomanceCandyStartTime	2015:12:24:11:0:0
星座奇缘糖果活动结束时间	XingzuoRomanceCandyEndTime	2015:12:30:11:0:0
星魂农场开启等级限制	HoroscopeFarmOpenLevel	75
星魂农场浇水加成百分比	HoroscopeFarmWaterAddition	100
星魂农场每天免费刷新次数	HoroscopeFarmRefreshFreeTimes	3
星魂农场收获奖励农场积分	HoroscopeFarmTreeAwardScore	30
QQ电脑管家推广开启等级	QQPCManagerOpenLevel	500
