编号	排名结束位	第1周奖励	第2周奖励	大于2周奖励
Id	Rank	Awards1	Awards2	Awards3
1	1	user.gold:1000000|user.honor:20000	user.gold:1500000|user.honor:30000	user.gold:2000000|user.honor:40000
2	5	user.gold:750000|user.honor:15000	user.gold:1125000|user.honor:22500	user.gold:1500000|user.honor:30000
3	10	user.gold:600000|user.honor:12000	user.gold:900000|user.honor:18000	user.gold:1200000|user.honor:24000
4	50	user.gold:500000|user.honor:10000	user.gold:750000|user.honor:15000	user.gold:1000000|user.honor:20000
5	100	user.gold:450000|user.honor:9500	user.gold:675000|user.honor:14250	user.gold:900000|user.honor:19000
6	200	user.gold:400000|user.honor:9000	user.gold:600000|user.honor:13500	user.gold:800000|user.honor:18000
7	300	user.gold:350000|user.honor:8500	user.gold:525000|user.honor:12750	user.gold:700000|user.honor:17000
8	1000000	user.gold:300000|user.honor:8000	user.gold:450000|user.honor:12000	user.gold:600000|user.honor:16000
